{
	"success": 1,
	"sell_order_table": "<table class=\"market_commodity_orders_table\"><tr><th align=\"right\">Price<\/th><th align=\"right\">Quantity<\/th><\/tr><tr><td align=\"right\" class=\"\">ARS$ 54,69<\/td><td align=\"right\">250<\/td><\/tr><tr><td align=\"right\" class=\"\">ARS$ 54,71<\/td><td align=\"right\">15<\/td><\/tr><tr><td align=\"right\" class=\"\">ARS$ 54,77<\/td><td align=\"right\">186<\/td><\/tr><tr><td align=\"right\" class=\"\">ARS$ 54,93<\/td><td align=\"right\">66<\/td><\/tr><tr><td align=\"right\" class=\"\">ARS$ 55,06<\/td><td align=\"right\">69<\/td><\/tr><tr><td align=\"right\" class=\"\">ARS$ 55,08 or more<\/td><td align=\"right\">19509<\/td><\/tr><\/table>",
	"sell_order_summary": "<span class=\"market_commodity_orders_header_promote\">20095<\/span> for sale starting at <span class=\"market_commodity_orders_header_promote\">ARS$ 54,69<\/span>",
	"buy_order_table": "<table class=\"market_commodity_orders_table\"><tr><th align=\"right\">Price<\/th><th align=\"right\">Quantity<\/th><\/tr><tr><td align=\"right\" class=\"\">ARS$ 51,46<\/td><td align=\"right\">1<\/td><\/tr><tr><td align=\"right\" class=\"\">ARS$ 50,66<\/td><td align=\"right\">60<\/td><\/tr><tr><td align=\"right\" class=\"\">ARS$ 49,76<\/td><td align=\"right\">6<\/td><\/tr><tr><td align=\"right\" class=\"\">ARS$ 49,49<\/td><td align=\"right\">1<\/td><\/tr><tr><td align=\"right\" class=\"\">ARS$ 49,46<\/td><td align=\"right\">2<\/td><\/tr><tr><td align=\"right\" class=\"\">ARS$ 49,14 or less<\/td><td align=\"right\">66895<\/td><\/tr><\/table>",
	"buy_order_summary": "<span class=\"market_commodity_orders_header_promote\">66965<\/span> requests to buy at <span class=\"market_commodity_orders_header_promote\">ARS$ 51,46<\/span> or lower",
	"highest_buy_order": "5146",
	"lowest_sell_order": "5469",
	"buy_order_graph": [
		[51.46,1,"1 buy orders at ARS$ 51,46 or higher"],
		[50.66,61,"61 buy orders at ARS$ 50,66 or higher"],
		[49.76,67,"67 buy orders at ARS$ 49,76 or higher"],
		[49.49,68,"68 buy orders at ARS$ 49,49 or higher"],
		[49.46,70,"70 buy orders at ARS$ 49,46 or higher"],
		[49.14,71,"71 buy orders at ARS$ 49,14 or higher"],
		[49.13,72,"72 buy orders at ARS$ 49,13 or higher"],
		[49,73,"73 buy orders at ARS$ 49,00 or higher"],
		[48.94,76,"76 buy orders at ARS$ 48,94 or higher"],
		[48.91,77,"77 buy orders at ARS$ 48,91 or higher"],
		[48.87,79,"79 buy orders at ARS$ 48,87 or higher"],
		[48.83,80,"80 buy orders at ARS$ 48,83 or higher"],
		[48.73,82,"82 buy orders at ARS$ 48,73 or higher"],
		[48.64,83,"83 buy orders at ARS$ 48,64 or higher"],
		[48.53,84,"84 buy orders at ARS$ 48,53 or higher"],
		[48.37,85,"85 buy orders at ARS$ 48,37 or higher"],
		[48.3,86,"86 buy orders at ARS$ 48,30 or higher"],
		[48.24,87,"87 buy orders at ARS$ 48,24 or higher"],
		[48.16,88,"88 buy orders at ARS$ 48,16 or higher"],
		[48.1,89,"89 buy orders at ARS$ 48,10 or higher"],
		[48,90,"90 buy orders at ARS$ 48,00 or higher"],
		[47.98,91,"91 buy orders at ARS$ 47,98 or higher"],
		[47.93,92,"92 buy orders at ARS$ 47,93 or higher"],
		[47.89,93,"93 buy orders at ARS$ 47,89 or higher"],
		[47.86,94,"94 buy orders at ARS$ 47,86 or higher"],
		[47.77,115,"115 buy orders at ARS$ 47,77 or higher"],
		[47.7,116,"116 buy orders at ARS$ 47,70 or higher"],
		[47.67,118,"118 buy orders at ARS$ 47,67 or higher"],
		[47.54,119,"119 buy orders at ARS$ 47,54 or higher"],
		[47.47,127,"127 buy orders at ARS$ 47,47 or higher"],
		[47.44,137,"137 buy orders at ARS$ 47,44 or higher"],
		[47.32,139,"139 buy orders at ARS$ 47,32 or higher"],
		[47.31,159,"159 buy orders at ARS$ 47,31 or higher"],
		[47.27,164,"164 buy orders at ARS$ 47,27 or higher"],
		[47.18,166,"166 buy orders at ARS$ 47,18 or higher"],
		[47.17,171,"171 buy orders at ARS$ 47,17 or higher"],
		[47.07,172,"172 buy orders at ARS$ 47,07 or higher"],
		[46.98,173,"173 buy orders at ARS$ 46,98 or higher"],
		[46.85,175,"175 buy orders at ARS$ 46,85 or higher"],
		[46.59,227,"227 buy orders at ARS$ 46,59 or higher"],
		[46.55,228,"228 buy orders at ARS$ 46,55 or higher"],
		[46.52,229,"229 buy orders at ARS$ 46,52 or higher"],
		[46.39,230,"230 buy orders at ARS$ 46,39 or higher"],
		[46.35,232,"232 buy orders at ARS$ 46,35 or higher"],
		[46.34,233,"233 buy orders at ARS$ 46,34 or higher"],
		[46.27,333,"333 buy orders at ARS$ 46,27 or higher"],
		[46.15,334,"334 buy orders at ARS$ 46,15 or higher"],
		[45.95,335,"335 buy orders at ARS$ 45,95 or higher"],
		[45.88,336,"336 buy orders at ARS$ 45,88 or higher"],
		[45.79,338,"338 buy orders at ARS$ 45,79 or higher"],
		[45.77,340,"340 buy orders at ARS$ 45,77 or higher"],
		[45.72,410,"410 buy orders at ARS$ 45,72 or higher"],
		[45.61,431,"431 buy orders at ARS$ 45,61 or higher"],
		[45.4,432,"432 buy orders at ARS$ 45,40 or higher"],
		[45.27,434,"434 buy orders at ARS$ 45,27 or higher"],
		[45.22,436,"436 buy orders at ARS$ 45,22 or higher"],
		[45.11,437,"437 buy orders at ARS$ 45,11 or higher"],
		[45.09,440,"440 buy orders at ARS$ 45,09 or higher"],
		[45.05,441,"441 buy orders at ARS$ 45,05 or higher"],
		[44.99,442,"442 buy orders at ARS$ 44,99 or higher"],
		[44.94,450,"450 buy orders at ARS$ 44,94 or higher"],
		[44.89,453,"453 buy orders at ARS$ 44,89 or higher"],
		[44.79,454,"454 buy orders at ARS$ 44,79 or higher"],
		[44.78,455,"455 buy orders at ARS$ 44,78 or higher"],
		[44.75,456,"456 buy orders at ARS$ 44,75 or higher"],
		[44.73,457,"457 buy orders at ARS$ 44,73 or higher"],
		[44.68,458,"458 buy orders at ARS$ 44,68 or higher"],
		[44.59,460,"460 buy orders at ARS$ 44,59 or higher"],
		[44.5,461,"461 buy orders at ARS$ 44,50 or higher"],
		[44.43,462,"462 buy orders at ARS$ 44,43 or higher"],
		[44.39,465,"465 buy orders at ARS$ 44,39 or higher"],
		[44.36,466,"466 buy orders at ARS$ 44,36 or higher"],
		[44.35,794,"794 buy orders at ARS$ 44,35 or higher"],
		[44.33,795,"795 buy orders at ARS$ 44,33 or higher"],
		[44.29,797,"797 buy orders at ARS$ 44,29 or higher"],
		[44.25,798,"798 buy orders at ARS$ 44,25 or higher"],
		[44.21,1435,"1,435 buy orders at ARS$ 44,21 or higher"],
		[44.19,1439,"1,439 buy orders at ARS$ 44,19 or higher"],
		[44.18,1441,"1,441 buy orders at ARS$ 44,18 or higher"],
		[44.13,1442,"1,442 buy orders at ARS$ 44,13 or higher"],
		[44.09,1443,"1,443 buy orders at ARS$ 44,09 or higher"],
		[44.07,1454,"1,454 buy orders at ARS$ 44,07 or higher"],
		[44.06,1456,"1,456 buy orders at ARS$ 44,06 or higher"],
		[44.04,1457,"1,457 buy orders at ARS$ 44,04 or higher"],
		[43.99,1458,"1,458 buy orders at ARS$ 43,99 or higher"],
		[43.98,1459,"1,459 buy orders at ARS$ 43,98 or higher"],
		[43.97,1460,"1,460 buy orders at ARS$ 43,97 or higher"],
		[43.96,1462,"1,462 buy orders at ARS$ 43,96 or higher"],
		[43.94,1464,"1,464 buy orders at ARS$ 43,94 or higher"],
		[43.9,1520,"1,520 buy orders at ARS$ 43,90 or higher"],
		[43.89,1876,"1,876 buy orders at ARS$ 43,89 or higher"],
		[43.88,1877,"1,877 buy orders at ARS$ 43,88 or higher"],
		[43.83,1879,"1,879 buy orders at ARS$ 43,83 or higher"],
		[43.79,1920,"1,920 buy orders at ARS$ 43,79 or higher"],
		[43.75,1921,"1,921 buy orders at ARS$ 43,75 or higher"],
		[43.73,1941,"1,941 buy orders at ARS$ 43,73 or higher"],
		[43.71,1942,"1,942 buy orders at ARS$ 43,71 or higher"],
		[43.66,1943,"1,943 buy orders at ARS$ 43,66 or higher"],
		[43.61,1947,"1,947 buy orders at ARS$ 43,61 or higher"],
		[43.59,1949,"1,949 buy orders at ARS$ 43,59 or higher"],
		[43.55,1950,"1,950 buy orders at ARS$ 43,55 or higher"]
	],
	"sell_order_graph": [
		[54.69,250,"250 sell orders at ARS$ 54,69 or lower"],
		[54.71,265,"265 sell orders at ARS$ 54,71 or lower"],
		[54.77,451,"451 sell orders at ARS$ 54,77 or lower"],
		[54.93,517,"517 sell orders at ARS$ 54,93 or lower"],
		[55.06,586,"586 sell orders at ARS$ 55,06 or lower"],
		[55.08,597,"597 sell orders at ARS$ 55,08 or lower"],
		[55.09,613,"613 sell orders at ARS$ 55,09 or lower"],
		[55.11,657,"657 sell orders at ARS$ 55,11 or lower"],
		[55.12,686,"686 sell orders at ARS$ 55,12 or lower"],
		[55.17,691,"691 sell orders at ARS$ 55,17 or lower"],
		[55.2,703,"703 sell orders at ARS$ 55,20 or lower"],
		[55.22,706,"706 sell orders at ARS$ 55,22 or lower"],
		[55.23,708,"708 sell orders at ARS$ 55,23 or lower"],
		[55.28,710,"710 sell orders at ARS$ 55,28 or lower"],
		[55.29,712,"712 sell orders at ARS$ 55,29 or lower"],
		[55.34,713,"713 sell orders at ARS$ 55,34 or lower"],
		[55.39,719,"719 sell orders at ARS$ 55,39 or lower"],
		[55.4,794,"794 sell orders at ARS$ 55,40 or lower"],
		[55.43,796,"796 sell orders at ARS$ 55,43 or lower"],
		[55.44,999,"999 sell orders at ARS$ 55,44 or lower"],
		[55.45,1010,"1,010 sell orders at ARS$ 55,45 or lower"],
		[55.46,1015,"1,015 sell orders at ARS$ 55,46 or lower"],
		[55.48,1016,"1,016 sell orders at ARS$ 55,48 or lower"],
		[55.5,1022,"1,022 sell orders at ARS$ 55,50 or lower"],
		[55.51,1065,"1,065 sell orders at ARS$ 55,51 or lower"],
		[55.52,1070,"1,070 sell orders at ARS$ 55,52 or lower"],
		[55.57,1071,"1,071 sell orders at ARS$ 55,57 or lower"],
		[55.62,1072,"1,072 sell orders at ARS$ 55,62 or lower"],
		[55.67,1097,"1,097 sell orders at ARS$ 55,67 or lower"],
		[55.69,1104,"1,104 sell orders at ARS$ 55,69 or lower"],
		[55.7,1304,"1,304 sell orders at ARS$ 55,70 or lower"],
		[55.71,1322,"1,322 sell orders at ARS$ 55,71 or lower"],
		[55.73,1323,"1,323 sell orders at ARS$ 55,73 or lower"],
		[55.74,1349,"1,349 sell orders at ARS$ 55,74 or lower"],
		[55.75,1381,"1,381 sell orders at ARS$ 55,75 or lower"],
		[55.78,2152,"2,152 sell orders at ARS$ 55,78 or lower"],
		[55.79,2153,"2,153 sell orders at ARS$ 55,79 or lower"],
		[55.8,2154,"2,154 sell orders at ARS$ 55,80 or lower"],
		[55.83,2156,"2,156 sell orders at ARS$ 55,83 or lower"],
		[55.84,2157,"2,157 sell orders at ARS$ 55,84 or lower"],
		[55.91,2158,"2,158 sell orders at ARS$ 55,91 or lower"],
		[55.93,2159,"2,159 sell orders at ARS$ 55,93 or lower"],
		[55.94,2162,"2,162 sell orders at ARS$ 55,94 or lower"],
		[55.95,2165,"2,165 sell orders at ARS$ 55,95 or lower"],
		[55.98,2166,"2,166 sell orders at ARS$ 55,98 or lower"],
		[56.01,2176,"2,176 sell orders at ARS$ 56,01 or lower"],
		[56.06,2177,"2,177 sell orders at ARS$ 56,06 or lower"],
		[56.07,2178,"2,178 sell orders at ARS$ 56,07 or lower"],
		[56.12,2182,"2,182 sell orders at ARS$ 56,12 or lower"],
		[56.13,2212,"2,212 sell orders at ARS$ 56,13 or lower"],
		[56.18,2252,"2,252 sell orders at ARS$ 56,18 or lower"],
		[56.29,2273,"2,273 sell orders at ARS$ 56,29 or lower"],
		[56.32,2292,"2,292 sell orders at ARS$ 56,32 or lower"],
		[56.35,2302,"2,302 sell orders at ARS$ 56,35 or lower"],
		[56.42,2303,"2,303 sell orders at ARS$ 56,42 or lower"],
		[56.44,2322,"2,322 sell orders at ARS$ 56,44 or lower"],
		[56.47,2406,"2,406 sell orders at ARS$ 56,47 or lower"],
		[56.49,2408,"2,408 sell orders at ARS$ 56,49 or lower"],
		[56.51,2410,"2,410 sell orders at ARS$ 56,51 or lower"],
		[56.54,2414,"2,414 sell orders at ARS$ 56,54 or lower"],
		[56.6,2426,"2,426 sell orders at ARS$ 56,60 or lower"],
		[56.69,2427,"2,427 sell orders at ARS$ 56,69 or lower"],
		[56.71,2429,"2,429 sell orders at ARS$ 56,71 or lower"],
		[56.72,2446,"2,446 sell orders at ARS$ 56,72 or lower"],
		[56.73,2448,"2,448 sell orders at ARS$ 56,73 or lower"],
		[56.74,2451,"2,451 sell orders at ARS$ 56,74 or lower"],
		[56.76,2454,"2,454 sell orders at ARS$ 56,76 or lower"],
		[56.77,2594,"2,594 sell orders at ARS$ 56,77 or lower"],
		[56.81,2595,"2,595 sell orders at ARS$ 56,81 or lower"],
		[56.87,2615,"2,615 sell orders at ARS$ 56,87 or lower"],
		[56.89,2627,"2,627 sell orders at ARS$ 56,89 or lower"],
		[56.92,2631,"2,631 sell orders at ARS$ 56,92 or lower"],
		[56.99,2637,"2,637 sell orders at ARS$ 56,99 or lower"],
		[57,2638,"2,638 sell orders at ARS$ 57,00 or lower"],
		[57.01,2646,"2,646 sell orders at ARS$ 57,01 or lower"],
		[57.04,2647,"2,647 sell orders at ARS$ 57,04 or lower"],
		[57.08,2651,"2,651 sell orders at ARS$ 57,08 or lower"],
		[57.17,2711,"2,711 sell orders at ARS$ 57,17 or lower"],
		[57.23,2751,"2,751 sell orders at ARS$ 57,23 or lower"],
		[57.27,2761,"2,761 sell orders at ARS$ 57,27 or lower"],
		[57.31,2762,"2,762 sell orders at ARS$ 57,31 or lower"],
		[57.32,2777,"2,777 sell orders at ARS$ 57,32 or lower"],
		[57.34,2779,"2,779 sell orders at ARS$ 57,34 or lower"],
		[57.41,2785,"2,785 sell orders at ARS$ 57,41 or lower"],
		[57.42,2810,"2,810 sell orders at ARS$ 57,42 or lower"],
		[57.43,2824,"2,824 sell orders at ARS$ 57,43 or lower"],
		[57.45,2835,"2,835 sell orders at ARS$ 57,45 or lower"],
		[57.47,2837,"2,837 sell orders at ARS$ 57,47 or lower"],
		[57.5,2842,"2,842 sell orders at ARS$ 57,50 or lower"],
		[57.55,2854,"2,854 sell orders at ARS$ 57,55 or lower"],
		[57.57,2878,"2,878 sell orders at ARS$ 57,57 or lower"],
		[57.59,2879,"2,879 sell orders at ARS$ 57,59 or lower"],
		[57.66,2882,"2,882 sell orders at ARS$ 57,66 or lower"],
		[57.73,2886,"2,886 sell orders at ARS$ 57,73 or lower"],
		[57.74,2899,"2,899 sell orders at ARS$ 57,74 or lower"],
		[57.77,2905,"2,905 sell orders at ARS$ 57,77 or lower"],
		[57.82,3009,"3,009 sell orders at ARS$ 57,82 or lower"],
		[57.84,3013,"3,013 sell orders at ARS$ 57,84 or lower"],
		[57.9,3016,"3,016 sell orders at ARS$ 57,90 or lower"],
		[57.91,3029,"3,029 sell orders at ARS$ 57,91 or lower"],
		[57.92,3030,"3,030 sell orders at ARS$ 57,92 or lower"]
	],
	"graph_max_y": 4000,
	"graph_min_x": 43.55,
	"graph_max_x": 57.92,
	"price_prefix": "ARS$",
	"price_suffix": ""
}